1296.4586,1345.1069,1268.4778,1284.7593,1353.2017,1257.2428
1265.4688,1281.8776,1258.1688,1255.788,1289.0848,1263.9666
1266.2786,1288.2957,1263.9509,1243.4097,1306.4542,1269.5151
1243.3779,1264.987,1241.411,1221.5428,1308.4012,1243.4136
1281.6559,1294.7632,1287.7765,1260.713,1342.3817,1284.2412
1293.2273,1294.9957,1289.7031,1286.5779,1312.3105,1284.4514
1286.5295,1284.6663,1291.7643,1290.3617,1190.3706,1287.5692
1263.7941,1233.9963,1283.4403,1255.87,1177.2656,1285.5787
1265.6573,1281.8068,1240.8346,1257.3224,1235.3046,1247.1423
1283.9568,1291.7623,1256.9017,1301.1095,1215.8103,1260.4169
1264.6464,1247.7784,1287.5286,1257.6311,1179.5358,1281.4574
1248.6945,1240.4156,1264.7083,1235.4214,1220.3817,1266.6589
1266.5076,1278.696,1266.4237,1260.0575,1302.7488,1252.0985
1293.0037,1293.9022,1301.6454,1283.8516,1297.9556,1289.0162
1288.7102,1266.876,1314.6412,1274.2073,1251.7556,1304.5768
1313.3469,1305.1224,1325.0851,1311.4752,1238.0211,1322.9553
1303.7455,1305.977,1307.1049,1309.4808,1211.6593,1305.306
1336.4369,1329.6259,1339.7865,1350.9396,1208.4579,1336.3197
1331.823,1323.763,1344.001,1334.1106,1200.9778,1342.078
1307.871,1311.2113,1314.6499,1311.1702,1175.9175,1309.3829
1298.1913,1271.2205,1289.4237,1296.3964,1181.0753,1289.7711
1305.6523,1263.9098,1339.0641,1291.8997,1173.5945,1327.0259
1293.7382,1288.9294,1263.465,1322.0302,1217.0177,1261.9493
1291.1909,1322.6865,1264.7341,1294.5964,1284.8767,1260.0636
1252.1241,1241.0304,1270.206,1240.0209,1248.1854,1264.1156
1259.6755,1273.6523,1259.2115,1259.316,1290.2228,1240.2927
1264.7202,1251.1747,1266.2019,1253.3604,1305.2146,1255.8097
1269.7482,1254.3251,1286.8235,1232.5673,1265.9932,1268.28
1263.783,1271.948,1259.076,1245.4188,1249.6663,1255.5819
1236.1707,1232.528,1216.973,1226.7052,1231.7925,1206.6069
1248.4974,1243.2147,1248.2252,1234.956,1220.5944,1232.1001
1268.1942,1276.2644,1256.868,1246.3083,1250.134,1248.6498
1262.8862,1266.128,1251.442,1246.4489,1260.4337,1245.7056
1275.7092,1282.5715,1268.2898,1257.9758,1280.0907,1260.4904
1288.7604,1302.9325,1294.3583,1247.295,1307.3342,1287.0212
1262.517,1266.0771,1274.1051,1225.6455,1282.0232,1266.3877
1289.2899,1258.5259,1316.0016,1266.7375,1301.8363,1292.3326
1212.9282,1180.0571,1246.7255,1202.3887,1167.3912,1225.4691
1226.576,1204.8567,1248.7827,1208.7683,1172.6747,1241.1008
1248.7108,1224.2339,1259.3547,1245.6207,1159.9353,1255.6794
1279.7305,1267.9431,1283.9539,1296.5785,1060.0509,1291.3071
1283.176,1250.1936,1355.775,1237.9261,1173.5538,1322.6447
1329.7712,1276.9866,1292.5074,1356.7726,1196.1522,1289.9224
1236.0575,1188.4719,1309.3495,1205.9281,1186.4193,1274.1893
1313.679,1259.1504,1254.6207,1372.3656,1262.1355,1257.7559
1144.3104,1124.1237,1176.6765,1125.5465,1163.2924,1158.416
1232.6193,1195.3926,1214.0997,1271.8624,1206.3273,1202.5011
1105.7797,1128.3221,1085.6954,1115.8333,1114.6564,1080.0353
1103.3761,1109.4401,1099.3623,1098.5095,1091.202,1088.8633
1073.7698,1082.3153,1072.3348,1071.4119,1087.5646,1060.0356
1026.4998,1056.9341,1008.27185,1025.5951,1026.3182,1006.3473
994.109,1027.4816,969.56055,993.37384,993.74207,976.7532
972.7081,1008.96924,956.13074,970.18286,978.48364,960.499
1047.9415,1031.8187,1063.1476,1045.8854,1045.5802,1048.1241
1011.7676,1047.3082,1008.87024,990.16815,1040.8838,1009.37683
1002.1352,1027.8315,1006.16504,993.70624,1042.9613,998.7575
992.242,1020.9369,986.3874,990.8076,1032.9353,980.7238
964.31854,981.07446,962.03235,934.83136,948.13904,954.8438
960.4037,988.0864,934.29016,966.86127,926.65106,938.89465
953.5867,1002.27655,911.99304,965.51025,942.34705,915.73083
912.29846,955.5765,900.55865,904.25385,938.65515,905.55237
929.3947,959.3984,921.6524,930.343,973.88135,921.06134
880.4367,900.6886,884.1779,857.8364,889.0071,876.8514
844.2141,859.0792,861.4779,825.66486,874.5055,845.8961
851.073,891.5501,848.52136,837.98267,906.637,845.29614
873.2344,921.05585,892.7308,820.7112,908.2785,864.96094
840.23303,884.33295,845.86383,824.8752,870.30853,827.9322
846.6779,902.83624,836.0769,851.9178,891.62335,815.055
783.0137,812.90765,777.4837,806.08704,783.8284,757.1997
790.22894,810.6317,814.63837,797.9361,861.1845,792.0077
840.45264,899.7999,845.1642,838.8891,861.40894,827.7728
839.81946,894.0829,838.43427,843.82666,866.25757,821.3288
789.68494,781.5334,774.7637,819.8815,722.606,759.85974
802.4386,795.56647,789.36224,828.92145,754.3177,779.4767
710.0598,701.4847,692.53687,752.2959,675.9462,683.81586
757.6102,777.58875,729.3306,794.69385,750.5757,721.3254
723.5815,742.91406,735.64655,728.2398,746.0648,705.3474
836.6744,822.09344,848.231,857.2263,890.248,824.46277
878.7527,908.9824,883.98474,903.03906,921.9521,839.15125
879.5483,916.58295,870.8201,908.9218,897.5918,833.6029
944.55133,999.52625,930.78864,970.46277,1009.0292,886.56537
882.2489,974.0034,864.91174,895.69006,926.93207,820.92706
897.3457,995.67926,872.6116,908.55066,944.9046,826.8098
1260.3097,1297.6744,1254.8667,1218.7997,1251.2297,1258.0466
1278.6929,1301.4965,1274.7911,1250.8593,1299.6487,1269.9309
1247.0929,1249.6786,1244.0215,1247.8083,1253.2186,1238.3033
1194.7167,1210.6863,1187.4408,1198.8964,1232.1135,1181.5725
1199.4435,1205.0978,1196.7167,1209.0647,1237.1682,1186.6318
1192.0302,1196.3392,1200.0752,1191.565,1223.0402,1185.4661
1203.251,1212.3716,1205.392,1201.2164,1249.1024,1191.1
1212.2363,1211.7991,1213.2034,1208.625,1260.914,1199.7063
1233.344,1222.7756,1237.197,1223.3126,1269.8004,1228.4133
1254.0165,1247.2297,1250.6908,1233.2498,1293.8235,1248.3916
1239.188,1235.9119,1232.6567,1219.1538,1278.9252,1230.3691
1238.019,1235.6354,1230.3009,1219.1857,1269.2893,1228.4873
1246.4092,1247.3204,1240.5555,1223.5226,1271.6088,1239.175
1244.0093,1239.7944,1233.043,1225.8932,1278.03,1234.7911
1237.229,1231.2544,1225.7334,1227.4769,1271.8901,1225.2427
1237.8102,1240.2004,1228.3597,1232.2211,1262.3433,1223.2012
1208.585,1229.733,1208.6171,1160.6884,1210.9698,1200.003
1363.2205,1388.5587,1352.2478,1334.6323,1302.8691,1358.6631
1356.8323,1354.0546,1331.8855,1339.8795,1363.4907,1344.3978
1359.0505,1387.7308,1339.9257,1324.7267,1333.5061,1355.1677
1367.4778,1394.6229,1330.2927,1340.3837,1370.4716,1347.3922
1382.1263,1346.6044,1381.3193,1379.5524,1409.9331,1384.7362
1355.5394,1377.6362,1339.5364,1327.6671,1318.4089,1348.7252
1346.9401,1351.4607,1317.2306,1327.1259,1344.6937,1332.5338
1350.4768,1321.8462,1331.4642,1352.4165,1370.1525,1345.821
1354.5575,1358.0625,1338.9073,1340.3707,1299.7496,1345.4756
1332.5201,1298.0199,1300.2351,1336.796,1338.6239,1315.6476
1339.6814,1313.6035,1307.6483,1329.4363,1308.996,1331.319
1389.8662,1384.2338,1366.1731,1368.0614,1287.5323,1380.934
1386.5438,1400.2078,1331.5417,1399.654,1288.3641,1357.2726
1424.5618,1445.9625,1387.2615,1378.3113,1445.8486,1411.3186
1384.5807,1384.0962,1341.4751,1366.4996,1411.7103,1363.9082
1413.5096,1372.1154,1422.5795,1463.3978,1189.683,1435.5225
1376.6906,1322.4337,1464.7642,1349.787,1232.5614,1418.2002
1380.1827,1303.2092,1334.8983,1454.4012,1178.1827,1333.6482
1413.9164,1369.5265,1356.1664,1437.7814,1487.3466,1361.4044
1363.7427,1352.8344,1347.8374,1344.1566,1366.0891,1358.7611
1433.4828,1427.8313,1422.1753,1390.3639,1395.103,1421.6904
1403.6013,1402.4136,1376.0087,1388.4221,1408.3958,1376.5638
1407.0897,1406.7867,1453.7649,1443.6804,1061.9827,1446.3331
1414.3798,1373.1901,1406.5844,1448.7345,1131.3275,1398.8483
1400.7117,1349.3624,1382.5347,1455.9799,1194.5898,1370.8213
1282.7003,1256.3844,1235.2235,1359.0052,1093.0641,1239.6605
1324.1776,1258.987,1290.8639,1410.0264,1262.0942,1285.6533
1360.804,1327.0126,1310.7726,1390.1007,1448.1626,1313.7009
1289.0208,1302.5281,1268.7384,1264.3488,1343.2427,1278.6606
1325.8926,1324.6019,1297.8219,1377.7969,1068.383,1329.6702
1341.2799,1294.0854,1316.3147,1386.0579,1064.424,1321.3578
1354.3506,1338.7965,1300.2709,1352.9469,1394.7649,1311.4365
1303.0374,1334.4688,1295.5048,1268.5956,1300.1622,1296.6873
1345.0796,1309.8287,1320.0881,1330.9357,1392.6887,1328.3535
1385.1254,1370.6921,1368.4413,1409.2584,1182.6775,1385.328
1386.3279,1353.3363,1369.0231,1410.1145,1107.5593,1371.4595
1409.5104,1398.6909,1367.0245,1398.7972,1456.6703,1374.7275
1337.8973,1362.3219,1323.9108,1291.528,1377.8688,1333.419
1352.8904,1382.7064,1334.4982,1318.7079,1298.03,1347.1755
1361.0083,1383.4515,1320.8473,1319.1521,1382.9749,1343.2471
1329.5309,1292.0114,1309.6161,1322.1077,1381.3689,1327.2946
1276.2015,1260.0873,1301.9857,1334.0656,948.3832,1313.5958
1303.9001,1282.0878,1384.8959,1280.3696,1133.5579,1345.6853
1299.3706,1242.6511,1254.8195,1372.0225,1091.7535,1257.82
1345.8326,1329.0017,1279.1981,1369.2495,1397.2118,1293.2369
1320.582,1355.9517,1309.0822,1287.9703,1316.6647,1311.1292
1326.8107,1294.2887,1311.5137,1304.4447,1393.7902,1318.7428
1363.942,1344.4786,1384.277,1385.6853,1102.9336,1391.1981
1415.2001,1384.5283,1376.1337,1435.3829,1128.9076,1389.0875
1046.8691,1058.1959,1024.2125,1083.3256,833.34906,1056.9052
1083.7329,1080.3523,1036.0918,1089.1287,921.6779,1054.0905
1070.1919,1087.8433,1014.4403,1064.5564,1112.3184,1026.5919
1003.0301,1041.6919,1011.8581,1018.39764,816.1357,1021.48627
744.71027,796.8681,746.2901,719.8681,669.6018,753.598
736.5532,792.5216,711.3782,713.1637,736.9867,731.38306
747.9508,736.88586,745.46576,741.0564,769.8021,761.3395
694.1643,728.2686,689.7786,674.2515,704.6672,702.8988
721.97003,755.9458,689.5181,707.3204,740.911,709.95294
741.38763,738.1534,729.20435,741.7195,753.081,750.40576
693.43085,738.76056,682.4955,674.47174,709.6945,701.46906
730.1314,751.2114,689.88983,710.96,800.7835,717.06683
684.1253,700.8543,656.02246,696.9892,674.8263,694.8834
610.64734,643.67456,559.9736,620.87897,568.8046,604.14514
630.3356,640.74384,590.6452,635.6635,653.19415,634.0021
547.5488,537.90643,524.78156,576.8302,536.8666,566.90985
617.9067,601.84106,608.438,648.8837,494.35474,623.4527
611.49097,602.4238,611.25934,610.28986,660.7023,616.24915
558.9035,552.9118,578.4026,566.7557,589.8466,587.8635
434.6405,414.328,462.29236,484.01157,359.92825,476.23862
412.65518,470.1598,447.5999,398.22766,425.60727,453.68695
244.36818,201.37444,302.18488,254.14864,193.20595,313.11783
326.13043,366.67175,368.91895,312.0372,355.17432,370.47516
-150.40765,-358.1423,-56.77218,-116.15019,-289.77594,-21.322111
1164.3683,1617.181,1125.6254,1006.66797,1541.6829,1025.6824
1286.2295,1268.2804,1286.6384,1273.3159,1266.7697,1308.3153
1296.8251,1311.3679,1296.7039,1282.6785,1343.9456,1298.7527
1291.7906,1291.91,1296.2933,1288.453,1289.0369,1294.736
1304.0083,1317.8116,1311.3358,1267.1074,1307.9697,1310.7875
1338.3507,1337.2644,1341.9088,1336.7211,1322.8298,1347.1075
1336.6752,1348.5726,1333.6022,1335.3448,1345.0631,1337.163
1335.4095,1338.9894,1333.7284,1334.0558,1315.6504,1338.4187
1321.4366,1323.5917,1318.1646,1319.6703,1335.7721,1320.9998
1343.625,1341.418,1340.1562,1344.0103,1341.613,1341.6201
1320.7963,1347.9728,1318.199,1284.6748,1318.5864,1319.6782
1350.1316,1343.2909,1349.272,1333.9703,1347.4435,1353.9127
1326.2671,1336.4644,1314.4456,1326.6777,1330.6486,1313.1066
1355.8875,1362.792,1361.5605,1344.919,1365.5305,1371.5769
1346.8619,1356.3306,1350.3281,1331.5187,1394.7181,1353.733
1381.9294,1373.7327,1384.7866,1372.2672,1404.4395,1382.5535
1389.9167,1375.8376,1402.375,1400.8444,1288.3763,1401.0148
1421.7344,1388.0394,1398.4603,1429.6198,1319.8395,1412.925
1418.0453,1385.4238,1405.7094,1437.8541,1306.8787,1407.5247
1437.034,1422.8287,1431.9987,1448.8063,1433.6925,1421.2443
1435.3416,1428.814,1432.5314,1450.0494,1448.2166,1415.3752
1425.929,1405.9541,1416.493,1452.367,1437.9722,1403.0188
1427.8923,1409.2717,1430.384,1460.497,1445.668,1407.5413
1441.199,1425.2448,1446.3231,1467.4971,1484.4955,1421.4293
1358.5521,1355.4825,1358.8594,1356.9305,1351.761,1351.4822
1325.8589,1330.2961,1338.326,1286.8794,1320.3809,1333.6798
1322.383,1325.7291,1319.5345,1312.3153,1314.6934,1317.8097
1339.4978,1346.4845,1341.8894,1325.781,1339.7205,1345.8127
